…
select()

–

As the name implies, this is where we select the columns that we want to keep in a data frame.

–

But first, you’ll need to load the data. Do the following:

library(nycflights13)
flights

## # A tibble: 336,776 x 19
##     year month   day dep_time sched_dep_time dep_delay arr_time sched_arr_time
##    <int> <int> <int>    <int>          <int>     <dbl>    <int>          <int>
##  1  2013     1     1      517            515         2      830            819
##  2  2013     1     1      533            529         4      850            830
##  3  2013     1     1      542            540         2      923            850
##  4  2013     1     1      544            545        -1     1004           1022
##  5  2013     1     1      554            600        -6      812            837
##  6  2013     1     1      554            558        -4      740            728
##  7  2013     1     1      555            600        -5      913            854
##  8  2013     1     1      557            600        -3      709            723
##  9  2013     1     1      557            600        -3      838            846
## 10  2013     1     1      558            600        -2      753            745
## # … with 336,766 more rows, and 11 more variables: arr_delay <dbl>,
## #   carrier <chr>, flight <int>, tailnum <chr>, origin <chr>, dest <chr>,
## #   air_time <dbl>, distance <dbl>, hour <dbl>, minute <dbl>, time_hour <dttm>

And take a look at our data using all of the tools I taught you in the first course (head, summary, and one you may not have used previously: str).

Using select() on your data

–

The first argument to this function is the data frame (which dplyr calls a tibble), and the subsequent arguments are the columns to keep.

For our data in flights, let’s use select to choose some columns to keep.

dplyr::select(flights, year, month, day)

## # A tibble: 336,776 x 3
##     year month   day
##    <int> <int> <int>
##  1  2013     1     1
##  2  2013     1     1
##  3  2013     1     1
##  4  2013     1     1
##  5  2013     1     1
##  6  2013     1     1
##  7  2013     1     1
##  8  2013     1     1
##  9  2013     1     1
## 10  2013     1     1
## # … with 336,766 more rows

Easy, right? Now let’s choose some rows to work with using filter.

dplyr::filter(flights, month == 1, day == 1)

## # A tibble: 842 x 19
##     year month   day dep_time sched_dep_time dep_delay arr_time sched_arr_time
##    <int> <int> <int>    <int>          <int>     <dbl>    <int>          <int>
##  1  2013     1     1      517            515         2      830            819
##  2  2013     1     1      533            529         4      850            830
##  3  2013     1     1      542            540         2      923            850
##  4  2013     1     1      544            545        -1     1004           1022
##  5  2013     1     1      554            600        -6      812            837
##  6  2013     1     1      554            558        -4      740            728
##  7  2013     1     1      555            600        -5      913            854
##  8  2013     1     1      557            600        -3      709            723
##  9  2013     1     1      557            600        -3      838            846
## 10  2013     1     1      558            600        -2      753            745
## # … with 832 more rows, and 11 more variables: arr_delay <dbl>, carrier <chr>,
## #   flight <int>, tailnum <chr>, origin <chr>, dest <chr>, air_time <dbl>,
## #   distance <dbl>, hour <dbl>, minute <dbl>, time_hour <dttm>
…
But what if you want to use select AND filter?

–

We use something called pipes. Pipes look like this %>%. They take the output of one command and put it directly into the next.

–

Example:

flights %>%
  dplyr::filter(month == 1) %>%
  dplyr::select(year, month, day, dep_delay)

## # A tibble: 27,004 x 4
##     year month   day dep_delay
##    <int> <int> <int>     <dbl>
##  1  2013     1     1         2
##  2  2013     1     1         4
##  3  2013     1     1         2
##  4  2013     1     1        -1
##  5  2013     1     1        -6
##  6  2013     1     1        -4
##  7  2013     1     1        -5
##  8  2013     1     1        -3
##  9  2013     1     1        -3
## 10  2013     1     1        -2
## # … with 26,994 more rows
…
–

The na.rm here is where we tell R to ignore any missing data which usually is shown as “NA”. If we don’t use this command and we have missing data, R will return an error.

You can also group by multiple columns, which is very handy!

–

flights %>%
  group_by(carrier, month) %>%
  summarize(mean_dep_delay = mean(dep_delay, na.rm = TRUE))

## `summarise()` regrouping output by 'carrier' (override with `.groups` argument)

## # A tibble: 185 x 3
## # Groups:   carrier [16]
##    carrier month mean_dep_delay
##    <chr>   <int>          <dbl>
##  1 9E          1          16.9 
##  2 9E          2          16.5 
##  3 9E          3          13.4 
##  4 9E          4          13.6 
##  5 9E          5          22.7 
##  6 9E          6          29.0 
##  7 9E          7          31.4 
##  8 9E          8          17.3 
##  9 9E          9           7.75
## 10 9E         10           9.33
## # … with 175 more rows

You can also use summarize on multiple variables (columns, for our flights data). For our example, let’s look at the mean delay as well as the minimum value for departure time:

–

flights %>%
  group_by(carrier, month) %>%
  summarize(mean_dep_delay = mean(dep_delay, na.rm = TRUE),
            min_generation = min(dep_time, na.rm = TRUE))

## `summarise()` regrouping output by 'carrier' (override with `.groups` argument)

## # A tibble: 185 x 4
## # Groups:   carrier [16]
##    carrier month mean_dep_delay min_generation
##    <chr>   <int>          <dbl>          <int>
##  1 9E          1          16.9              15
##  2 9E          2          16.5             555
##  3 9E          3          13.4              14
##  4 9E          4          13.6              15
##  5 9E          5          22.7              33
##  6 9E          6          29.0               7
##  7 9E          7          31.4              13
##  8 9E          8          17.3             651
##  9 9E          9           7.75              3
## 10 9E         10           9.33            636
## # … with 175 more rows
…
Our flights data is currently in “long” format, which is usually (but not always!!) how you are going to want your data to be, for the kinds of data analyses you’ll be doing. Sometimes, you want to turn your data wide.

–

To do this, we can make our data wide and compare carriers and their departure delays. This is again easy to do with dplyr, using the spread function.

–

library(nycflights13)
flights_wide <- flights %>%
  tidyr::spread(carrier, dep_delay)

flights_wide

## # A tibble: 336,776 x 33
##     year month   day dep_time sched_dep_time arr_time sched_arr_time arr_delay
##    <int> <int> <int>    <int>          <int>    <int>          <int>     <dbl>
##  1  2013     1     1      517            515      830            819        11
##  2  2013     1     1      533            529      850            830        20
##  3  2013     1     1      542            540      923            850        33
##  4  2013     1     1      544            545     1004           1022       -18
##  5  2013     1     1      554            600      812            837       -25
##  6  2013     1     1      554            558      740            728        12
##  7  2013     1     1      555            600      913            854        19
##  8  2013     1     1      557            600      709            723       -14
##  9  2013     1     1      557            600      838            846        -8
## 10  2013     1     1      558            600      753            745         8
## # … with 336,766 more rows, and 25 more variables: flight <int>, tailnum <chr>,
## #   origin <chr>, dest <chr>, air_time <dbl>, distance <dbl>, hour <dbl>,
## #   minute <dbl>, time_hour <dttm>, `9E` <dbl>, AA <dbl>, AS <dbl>, B6 <dbl>,
## #   DL <dbl>, EV <dbl>, F9 <dbl>, FL <dbl>, HA <dbl>, MQ <dbl>, OO <dbl>,
## #   UA <dbl>, US <dbl>, VX <dbl>, WN <dbl>, YV <dbl>
…
I will show you an example where we exclude a column.

# First we create a dataset called stocks
stocks <- tibble(
  time = as.Date('2009-01-01') + 0:9,
  X = rnorm(10, 0, 1),
  Y = rnorm(10, 0, 2),
  Z = rnorm(10, 0, 4)
)

#Then we use gather to change the wide data into long format
stocks %>% gather("stock", "price", -time)

## # A tibble: 30 x 3
##    time       stock  price
##    <date>     <chr>  <dbl>
##  1 2009-01-01 X      0.196
##  2 2009-01-02 X     -0.488
##  3 2009-01-03 X     -0.230
##  4 2009-01-04 X      1.59 
##  5 2009-01-05 X     -1.65 
##  6 2009-01-06 X      0.782
##  7 2009-01-07 X      0.986
##  8 2009-01-08 X      2.67 
##  9 2009-01-09 X      0.734
## 10 2009-01-10 X      0.890
## # … with 20 more rows
…
